waybar: процесс не найден
[2023-04-11 11:42:44.206] [info] Using configuration file /home/wizzy/.config/waybar/config
[2023-04-11 11:42:44.207] [info] Using CSS file /home/wizzy/.config/waybar/style.css
[2023-04-11 11:42:44.223] [error] media stopped unexpectedly, is it endless?
[2023-04-11 11:42:44.224] [warning] module temperature: Disabling module "temperature", Can't open /sys/class/thermal/thermal_zone0/temp
[2023-04-11 11:42:44.224] [warning] module backlight: Disabling module "backlight", No backlight found
[2023-04-11 11:42:44.224] [warning] Can't open /dev/input/event6 (are you in the input group?): EACCES Отказано в доступе
[2023-04-11 11:42:44.224] [warning] Can't open /dev/input/event4 (are you in the input group?): EACCES Отказано в доступе
[2023-04-11 11:42:44.224] [warning] Can't open /dev/input/event3 (are you in the input group?): EACCES Отказано в доступе
[2023-04-11 11:42:44.224] [warning] Can't open /dev/input/event2 (are you in the input group?): EACCES Отказано в доступе
[2023-04-11 11:42:44.224] [warning] Can't open /dev/input/event17 (are you in the input group?): EACCES Отказано в доступе
[2023-04-11 11:42:44.224] [warning] Can't open /dev/input/event16 (are you in the input group?): EACCES Отказано в доступе
[2023-04-11 11:42:44.224] [warning] Can't open /dev/input/event15 (are you in the input group?): EACCES Отказано в доступе
[2023-04-11 11:42:44.224] [warning] Can't open /dev/input/event14 (are you in the input group?): EACCES Отказано в доступе
[2023-04-11 11:42:44.224] [warning] Can't open /dev/input/event13 (are you in the input group?): EACCES Отказано в доступе
[2023-04-11 11:42:44.224] [warning] Can't open /dev/input/event12 (are you in the input group?): EACCES Отказано в доступе
[2023-04-11 11:42:44.224] [warning] Can't open /dev/input/event11 (are you in the input group?): EACCES Отказано в доступе
[2023-04-11 11:42:44.224] [warning] Can't open /dev/input/event10 (are you in the input group?): EACCES Отказано в доступе
[2023-04-11 11:42:44.224] [warning] Can't open /dev/input/event9 (are you in the input group?): EACCES Отказано в доступе
[2023-04-11 11:42:44.224] [warning] Can't open /dev/input/event8 (are you in the input group?): EACCES Отказано в доступе
[2023-04-11 11:42:44.224] [warning] Can't open /dev/input/event7 (are you in the input group?): EACCES Отказано в доступе
[2023-04-11 11:42:44.224] [warning] Can't open /dev/input/event5 (are you in the input group?): EACCES Отказано в доступе
[2023-04-11 11:42:44.224] [warning] Can't open /dev/input/mouse0 (are you in the input group?): EACCES Отказано в доступе
[2023-04-11 11:42:44.224] [warning] Can't open /dev/input/event1 (are you in the input group?): EACCES Отказано в доступе
[2023-04-11 11:42:44.224] [warning] Can't open /dev/input/event0 (are you in the input group?): EACCES Отказано в доступе
[2023-04-11 11:42:44.224] [warning] Can't open /dev/input/mice (are you in the input group?): EACCES Отказано в доступе
[2023-04-11 11:42:44.225] [warning] module keyboard-state: Disabling module "keyboard-state", Failed to find keyboard device: EACCES Отказано в доступе
[2023-04-11 11:42:44.239] [warning] No batteries.
[2023-04-11 11:42:44.239] [warning] No battery named BAT2
[2023-04-11 11:42:44.239] [warning] As using a timezone, some format args may be missing as the date library haven't got a release since 2018.
[2023-04-11 11:42:44.377] [info] Bar configured (width: 1920, height: 30) for output: HDMI-A-1
[2023-04-11 11:42:45.225] [error] mpd: Failed to connect to MPD: В соединении отказано
[2023-04-11 11:42:47.228] [error] mpd: Failed to connect to MPD: В соединении отказано
waybar: процесс не найден
[2023-04-11 11:42:48.761] [info] Using configuration file /home/wizzy/.config/waybar/config
[2023-04-11 11:42:48.761] [info] Using CSS file /home/wizzy/.config/waybar/style.css
[2023-04-11 11:42:48.776] [warning] module temperature: Disabling module "temperature", Can't open /sys/class/thermal/thermal_zone0/temp
[2023-04-11 11:42:48.776] [warning] module backlight: Disabling module "backlight", No backlight found
[2023-04-11 11:42:48.776] [warning] Can't open /dev/input/event6 (are you in the input group?): EACCES Отказано в доступе
[2023-04-11 11:42:48.776] [warning] Can't open /dev/input/event4 (are you in the input group?): EACCES Отказано в доступе
[2023-04-11 11:42:48.776] [warning] Can't open /dev/input/event3 (are you in the input group?): EACCES Отказано в доступе
[2023-04-11 11:42:48.776] [warning] Can't open /dev/input/event2 (are you in the input group?): EACCES Отказано в доступе
[2023-04-11 11:42:48.776] [warning] Can't open /dev/input/event17 (are you in the input group?): EACCES Отказано в доступе
[2023-04-11 11:42:48.776] [warning] Can't open /dev/input/event16 (are you in the input group?): EACCES Отказано в доступе
[2023-04-11 11:42:48.776] [warning] Can't open /dev/input/event15 (are you in the input group?): EACCES Отказано в доступе
[2023-04-11 11:42:48.776] [warning] Can't open /dev/input/event14 (are you in the input group?): EACCES Отказано в доступе
[2023-04-11 11:42:48.776] [warning] Can't open /dev/input/event13 (are you in the input group?): EACCES Отказано в доступе
[2023-04-11 11:42:48.776] [warning] Can't open /dev/input/event12 (are you in the input group?): EACCES Отказано в доступе
[2023-04-11 11:42:48.776] [warning] Can't open /dev/input/event11 (are you in the input group?): EACCES Отказано в доступе
[2023-04-11 11:42:48.776] [warning] Can't open /dev/input/event10 (are you in the input group?): EACCES Отказано в доступе
[2023-04-11 11:42:48.776] [warning] Can't open /dev/input/event9 (are you in the input group?): EACCES Отказано в доступе
[2023-04-11 11:42:48.776] [warning] Can't open /dev/input/event8 (are you in the input group?): EACCES Отказано в доступе
[2023-04-11 11:42:48.776] [warning] Can't open /dev/input/event7 (are you in the input group?): EACCES Отказано в доступе
[2023-04-11 11:42:48.776] [warning] Can't open /dev/input/event5 (are you in the input group?): EACCES Отказано в доступе
[2023-04-11 11:42:48.776] [warning] Can't open /dev/input/mouse0 (are you in the input group?): EACCES Отказано в доступе
[2023-04-11 11:42:48.776] [warning] Can't open /dev/input/event1 (are you in the input group?): EACCES Отказано в доступе
[2023-04-11 11:42:48.776] [warning] Can't open /dev/input/event0 (are you in the input group?): EACCES Отказано в доступе
[2023-04-11 11:42:48.776] [warning] Can't open /dev/input/mice (are you in the input group?): EACCES Отказано в доступе
[2023-04-11 11:42:48.776] [warning] module keyboard-state: Disabling module "keyboard-state", Failed to find keyboard device: EACCES Отказано в доступе
[2023-04-11 11:42:48.778] [error] media stopped unexpectedly, is it endless?
[2023-04-11 11:42:48.791] [warning] No batteries.
[2023-04-11 11:42:48.792] [warning] No battery named BAT2
[2023-04-11 11:42:48.792] [warning] As using a timezone, some format args may be missing as the date library haven't got a release since 2018.
[2023-04-11 11:42:48.926] [info] Bar configured (width: 1920, height: 30) for output: HDMI-A-1
[2023-04-11 11:42:49.777] [error] mpd: Failed to connect to MPD: В соединении отказано
[2023-04-11 11:43:01.563] [info] Using configuration file /home/wizzy/.config/waybar/config
[2023-04-11 11:43:01.564] [info] Using CSS file /home/wizzy/.config/waybar/style.css
[2023-04-11 11:43:01.580] [warning] module temperature: Disabling module "temperature", Can't open /sys/class/thermal/thermal_zone0/temp
[2023-04-11 11:43:01.580] [warning] module backlight: Disabling module "backlight", No backlight found
[2023-04-11 11:43:01.580] [warning] Can't open /dev/input/event6 (are you in the input group?): EACCES Отказано в доступе
[2023-04-11 11:43:01.580] [warning] Can't open /dev/input/event4 (are you in the input group?): EACCES Отказано в доступе
[2023-04-11 11:43:01.580] [warning] Can't open /dev/input/event3 (are you in the input group?): EACCES Отказано в доступе
[2023-04-11 11:43:01.580] [warning] Can't open /dev/input/event2 (are you in the input group?): EACCES Отказано в доступе
[2023-04-11 11:43:01.580] [warning] Can't open /dev/input/event17 (are you in the input group?): EACCES Отказано в доступе
[2023-04-11 11:43:01.580] [warning] Can't open /dev/input/event16 (are you in the input group?): EACCES Отказано в доступе
[2023-04-11 11:43:01.580] [warning] Can't open /dev/input/event15 (are you in the input group?): EACCES Отказано в доступе
[2023-04-11 11:43:01.580] [warning] Can't open /dev/input/event14 (are you in the input group?): EACCES Отказано в доступе
[2023-04-11 11:43:01.580] [warning] Can't open /dev/input/event13 (are you in the input group?): EACCES Отказано в доступе
[2023-04-11 11:43:01.580] [warning] Can't open /dev/input/event12 (are you in the input group?): EACCES Отказано в доступе
[2023-04-11 11:43:01.580] [warning] Can't open /dev/input/event11 (are you in the input group?): EACCES Отказано в доступе
[2023-04-11 11:43:01.580] [warning] Can't open /dev/input/event10 (are you in the input group?): EACCES Отказано в доступе
[2023-04-11 11:43:01.580] [warning] Can't open /dev/input/event9 (are you in the input group?): EACCES Отказано в доступе
[2023-04-11 11:43:01.580] [warning] Can't open /dev/input/event8 (are you in the input group?): EACCES Отказано в доступе
[2023-04-11 11:43:01.580] [warning] Can't open /dev/input/event7 (are you in the input group?): EACCES Отказано в доступе
[2023-04-11 11:43:01.580] [warning] Can't open /dev/input/event5 (are you in the input group?): EACCES Отказано в доступе
[2023-04-11 11:43:01.580] [warning] Can't open /dev/input/mouse0 (are you in the input group?): EACCES Отказано в доступе
[2023-04-11 11:43:01.580] [warning] Can't open /dev/input/event1 (are you in the input group?): EACCES Отказано в доступе
[2023-04-11 11:43:01.580] [warning] Can't open /dev/input/event0 (are you in the input group?): EACCES Отказано в доступе
[2023-04-11 11:43:01.581] [warning] Can't open /dev/input/mice (are you in the input group?): EACCES Отказано в доступе
[2023-04-11 11:43:01.581] [warning] module keyboard-state: Disabling module "keyboard-state", Failed to find keyboard device: EACCES Отказано в доступе
[2023-04-11 11:43:01.581] [error] media stopped unexpectedly, is it endless?
[2023-04-11 11:43:01.596] [warning] No batteries.
[2023-04-11 11:43:01.596] [warning] No battery named BAT2
[2023-04-11 11:43:01.596] [warning] As using a timezone, some format args may be missing as the date library haven't got a release since 2018.
[2023-04-11 11:43:01.722] [info] Bar configured (width: 1920, height: 30) for output: HDMI-A-1
[2023-04-11 11:43:02.581] [error] mpd: Failed to connect to MPD: В соединении отказано
[2023-04-11 11:44:14.163] [info] Using configuration file /home/wizzy/.config/waybar/config
[2023-04-11 11:44:14.164] [error] * Line 11, Column 6
  Missing '}' or object member name

